{
  "en": [
    {
      "id": "isd-study",
      "title": "A statement about the German ISD study on PeerTube",
      "shortDescription": "We, Framasoft, have been developing the PeerTube software for 5+ years. Framasoft is a French non-profit of 38 members (10 employees, 28 volunteers), ...",
      "isArchive": false
    },
    {
      "id": "newsletter-2024-04",
      "title": "April 2024 PeerTube newsletter!",
      "shortDescription": "Bonjour, We are Framasoft, the French non-profit developing the PeerTube software! You have been waiting for this for years, and so have we... ... wel...",
      "isArchive": false
    },
    {
      "id": "peertube-future-2024",
      "title": "Mobile App, redesign, new dev, promotion... let’s build a bright future for PeerTube!",
      "shortDescription": "Developing an ethical and emancipating alternative to YouTube, Twitch or Vimeo without Surveillance Capitalism’s means is a huge undertaking. Especial...",
      "image": "https://framablog.org/wp-content/uploads/2023/11/sepia-1024x576.jpg",
      "isArchive": false
    },
    {
      "id": "release-5.1",
      "title": "PeerTube 5.1 is out!",
      "shortDescription": "Version 5.1 of PeerTube has been released! On the menu: moderation of account creation, a button to resume live broadcasting, improved management of e...",
      "isArchive": false
    },
    {
      "id": "release-5.2",
      "title": "Version 5.2 of PeerTube is out!",
      "shortDescription": "This version comes with a small technical challenge that we're proud to have overcome! This new feature won't be as visible as a graphical change, but...",
      "isArchive": false
    },
    {
      "id": "release-6.0",
      "title": "PeerTube v6 is out, and powered by your ideas !",
      "shortDescription": "It's #givingtuesday, so we're giving you PeerTube v6 today! PeerTube is the software we develop for creators, media, institutions, educators... to man...",
      "isArchive": false
    },
    {
      "id": "release-6.1",
      "title": "PeerTube 6.1 is out!",
      "shortDescription": "We're pleased to announce the 6.1 release of PeerTube 🙂 In addition to the integration of account import/export and other great features that we'll d...",
      "isArchive": false
    },
    {
      "id": "release-6.2",
      "title": "PeerTube 6.2 is out!",
      "shortDescription": "This new version is all about making your life easier. Easier moderation, easier subtitle creation and easier video highlighting. Let's take a look! C...",
      "isArchive": false
    },
    {
      "id": "release-6.3",
      "title": "PeerTube v6.3 released!",
      "shortDescription": "This is the last minor release before v7, but it's packed with interesting new features! Let's have a look :) Separate audio and video streams for mor...",
      "isArchive": false
    },
    {
      "id": "roadmap-v6",
      "title": "What 2023 will bring for PeerTube...",
      "shortDescription": "We (Framasoft, a small not-for-profit association!) are proud to present our roadmap for the developments and side projects we have planned for PeerTu...",
      "isArchive": false
    },
    {
      "id": "stress-test-2023",
      "title": "PeerTube stress tests: resilience lies in your peers!",
      "shortDescription": "We have many admins or uploaders wondering how many concurrent viewers a PeerTube instance can handle and how much its P2P feature can help the server...",
      "isArchive": false
    },
    {
      "id": "crowdfunding-1",
      "title": "PeerTube crowdfunding newsletter #1",
      "shortDescription": "Hello everyone! First of all, thank you again for contributing to PeerTube! ❤️ During the crowdfunding campaign, we continued to work on the localizat...",
      "isArchive": true
    },
    {
      "id": "crowdfunding-2",
      "title": "PeerTube crowdfunding newsletter #2",
      "shortDescription": "Hello everyone! The development of the crowdfunding features is going well. As a reminder, in the first newsletter (July 23rd, 2018), we announced tha...",
      "isArchive": true
    },
    {
      "id": "crowdfunding-3",
      "title": "PeerTube crowdfunding newsletter #3",
      "shortDescription": "Hello everyone! A month before the version 1 of PeerTube, we would like to share some (good!) news with you. We just released PeerTube beta 12, that a...",
      "isArchive": true
    },
    {
      "id": "crowdfunding-4",
      "title": "PeerTube crowdfunding newsletter #4",
      "shortDescription": "Hello everyone! We are now in mid-October! As promised, we have just released the first stable version of PeerTube. It implements all stretch goals we...",
      "isArchive": true
    },
    {
      "id": "ideas-jpt",
      "title": "Let's improve PeerTube - Help us define PeerTube's future roadmap",
      "shortDescription": "Bonjour everyone! We need your help to share and contribute to a new feedback tool: Ideas.joinpeertube.org. Five years of building the ecosystem of Pe...",
      "isArchive": true
    },
    {
      "id": "joinpeertube-2023",
      "title": "JoinPeertube gets a redesign, PeerTube v5 on its way!",
      "shortDescription": "Hello, First of all, PeerTube v5 is on its way, as we have just published a release candidate version that will be tested out in the next few weeks. W...",
      "image": "https://framablog.org/wp-content/uploads/2022/11/2022-11-28-16-36-chocobozzz.frama.io.png",
      "isArchive": true
    },
    {
      "id": "live-plugin-app",
      "title": "New external tools for PeerTube Live!",
      "shortDescription": "A PeerTube spiced up with third-party software is possible! Framasoft has funded and supported two external developments to bring interesting features...",
      "isArchive": true
    },
    {
      "id": "plugins-selection-1",
      "title": "A plugin selection on joinpeertube.org",
      "shortDescription": "Hello, In September 2019 when PeerTube v.1.4 was released, we announced the creation of a plugin system. This system allows PeerTube instance administ...",
      "isArchive": true
    },
    {
      "id": "release-1-3-0",
      "title": "PeerTube 1.3 is out!",
      "shortDescription": "Hello! We've just released PeerTube 1.3 and it brings a lot of new features. The most important of these new features is the playlist system. This fea...",
      "isArchive": true
    },
    {
      "id": "release-1-4-0",
      "title": "PeerTube 1.4 is out!",
      "shortDescription": "Hi everybody, Peertube 1.4 just came out! Here's a quick overview of what's new… Plug-in system Since PeerTube's launch, we have been aware that every...",
      "isArchive": true
    },
    {
      "id": "release-2-0-0",
      "title": "Release of PeerTube v2, and redesign of JoinPeertube",
      "shortDescription": "Hello, After a year of work and improvements, we have just released version 2 of PeerTube! Everything is explained in detail in the Framablog article ...",
      "isArchive": true
    },
    {
      "id": "release-2-1-0",
      "title": "PeerTube 2.1 is out!",
      "shortDescription": "Hi everybody, A few months after PeerTube V2 announcement, we are pleased to announce you that version 2.1 has been released. Here's a quick overview ...",
      "isArchive": true
    },
    {
      "id": "release-2-2-0",
      "title": "PeerTube 2.2 is out!",
      "shortDescription": "Hi everybody, After showcasing our roadmap for PeerTube V3, we are happy to announce that version 2.2 is out. Let's look around and see what it brings...",
      "isArchive": true
    },
    {
      "id": "release-2-3-0",
      "title": "PeerTube 2.3 is out!",
      "shortDescription": "Hi everybody, In early june, we released PeerTube 2.2 and less than two months later we are releasing this 2.3 version. We are proud to move forward s...",
      "isArchive": true
    },
    {
      "id": "release-2-4-0",
      "title": "PeerTube 2.4 is out!",
      "shortDescription": "Hi everybody, In mid-july, we released PeerTube 2.3 and now here is the 2.4 version. This latest release implements features we've already told you ab...",
      "isArchive": true
    },
    {
      "id": "release-3.0",
      "title": "PeerTube v3 is out, with p2p livestreaming!",
      "shortDescription": "Hello, It has been a very busy 6 months, but we have completed our roadmap and just released version 3 of PeerTube! Read all about it on our blog; See...",
      "isArchive": true
    },
    {
      "id": "release-3.0rc",
      "title": "The Release Candidate for PeerTube v3 is live!",
      "shortDescription": "Hi everybody, PeerTube v3 is almost complete, and we have just published a RC (release candidate) for admins who like to try it and give us feedback s...",
      "isArchive": true
    },
    {
      "id": "release-3.1",
      "title": "PeerTube v3.1 is out!",
      "shortDescription": "Hi everybody, After releasing PeerTube v3 in early January, it's time for a new main version with plenty of improvements and new features. Here are so...",
      "isArchive": true
    },
    {
      "id": "release-3.2",
      "title": "PeerTube v3.2 is out!",
      "shortDescription": "Hi everybody, 2 months ago, we published PeerTube v.3.1! Since then, we have made many improvements to your favourite tool... So here are some details...",
      "isArchive": true
    },
    {
      "id": "release-3.3",
      "title": "PeerTube v3.3 is out!",
      "shortDescription": "Hi everybody, With this v3.3, we offer you new features to further customise your instances, playlists' addition to the search, smaller URLs and many ...",
      "isArchive": true
    },
    {
      "id": "release-3.4",
      "title": "PeerTube v3.4 is out!",
      "shortDescription": "Hi everybody, At Framasoft, as we didn't spend the whole summer basking in the sun, we took time to improve our favourite software. With this version ...",
      "isArchive": true
    },
    {
      "id": "release-candidate-4.0",
      "title": "Learn all about PeerTube v4!",
      "shortDescription": "Hello, PeerTube v4 is on its way, as we have just published a release candidate version that will be tested out in the next few weeks. For this occasi...",
      "isArchive": true
    },
    {
      "id": "release-4.1",
      "title": "PeerTube v4.1 is out!",
      "shortDescription": "Hi everybody, We invite you to discover the improvements and features of this latest version of PeerTube. Let's look around and see what it brings us....",
      "isArchive": true
    },
    {
      "id": "release-4.2",
      "title": "PeerTube v4.2 is out!",
      "shortDescription": "Hi everybody, We are pleased to announce this new version of PeerTube! Editing videos from the web interface, detailed viewers stats for videos, abili...",
      "isArchive": true
    },
    {
      "id": "release-4.3",
      "title": "PeerTube v4.3 is out!",
      "shortDescription": "Hi everybody, We are pleased to announce this new version of PeerTube! Ability to automatically import videos from a remote channel, UI improvements, ...",
      "isArchive": true
    },
    {
      "id": "release-5.0",
      "title": "Learn all about PeerTube v5!",
      "shortDescription": "🎉 PeerTube v5 is now available 🎉. For this occasion, we have published a blog post summing up a year of hard work and improvements on the PeerTube e...",
      "image": "https://framablog.org/wp-content/uploads/2022/12/Peertube-v5_by-David-Revoy.jpg",
      "isArchive": true
    },
    {
      "id": "release-sepiasearch",
      "title": "Introducing SepiaSearch!",
      "shortDescription": "Hi everybody, We have just released SepiaSearch, our search engine to help you discover videos and channels on PeerTube! We've worked hard to ensure t...",
      "isArchive": true
    },
    {
      "id": "release-since-1.0-0",
      "title": "PeerTube: retrospective, new features and more to come!",
      "shortDescription": "Since version 1.0 has been released last November, we went on improving PeerTube, day after day. These improvements on PeerTube go well beyond the obj...",
      "isArchive": true
    },
    {
      "id": "roadmap-v3-part-1",
      "title": "[V3 Roadmap] Global Search ✅, let's go to moderation tools!",
      "shortDescription": "Here is another step in the PeerTube roadmap leading to v3! June has been dedicated to implement a system to enable global video search across PeerTub...",
      "isArchive": true
    },
    {
      "id": "roadmap-v3-part-2",
      "title": "[V3 Roadmap] Moderation ✅, let's improve plugins and playlists!",
      "shortDescription": "In early August, we entered a new stage in the development of PeerTube v3. Moderation tools: on the road to 2.4 In early August we finalized the work ...",
      "isArchive": true
    },
    {
      "id": "roadmap-v3",
      "title": "Roadmap to PeerTube's v3",
      "shortDescription": "Yesterday, we've published our new roadmap to PeerTube's v3 detailing key features such as: global search moderation tools plugin &amp; playlists peer...",
      "isArchive": true
    },
    {
      "id": "roadmap-v4",
      "title": "Our plans for PeerTube v4",
      "shortDescription": "In the PeerTube v3 release blogpost, we announced that we wouldn't resort to crowdfunding to finance PeerTube's development in 2021. We are glad to an...",
      "isArchive": true
    }
  ],
  "fr": [
    {
      "id": "isd-study",
      "title": "Déclaration concernant l'étude de l'ISD (Allemagne) sur PeerTube",
      "shortDescription": "Nous, Framasoft, développons le logiciel PeerTube depuis plus de 5 ans. Framasoft est une association française à but non lucratif de 38 membres (10 e...",
      "isArchive": false
    },
    {
      "id": "newsletter-2024-04",
      "title": "April 2024 PeerTube newsletter!",
      "shortDescription": "Bonjour, We are Framasoft, the French non-profit developing the PeerTube software! You have been waiting for this for years, and so have we... ... wel...",
      "isArchive": false
    },
    {
      "id": "peertube-future-2024",
      "title": "Application mobile, redesign, nouveau développeur, promotion... construisons un avenir radieux pour PeerTube !",
      "shortDescription": "Développer une alternative éthique et émancipatrice à YouTube, Twitch ou Vimeo sans les moyens du capitalisme de surveillance est une entreprise gigan...",
      "image": "https://framablog.org/wp-content/uploads/2023/11/sepia-1024x576.jpg",
      "isArchive": false
    },
    {
      "id": "release-5.1",
      "title": "La 5.1 de PeerTube est sortie !",
      "shortDescription": "La version 5.1 de PeerTube est sortie ! Au menu : modération des créations de compte, un bouton pour reprendre le direct, la gestion des plugins d'aut...",
      "isArchive": false
    },
    {
      "id": "release-5.2",
      "title": "La version 5.2 de PeerTube est sortie !",
      "shortDescription": "Cette version vient avec un petit défi technique que nous sommes fiers d'avoir relevé ! Cette nouvelle fonctionnalité ne sera pas aussi visible qu'un ...",
      "isArchive": false
    },
    {
      "id": "release-6.0",
      "title": "PeerTube v6 est publié, et conçu grâce à vos idées !",
      "shortDescription": "C'est #givingtuesday (« jour des dons »), donc nous vous offrons PeerTube v6 aujourd'hui ! PeerTube est le logiciel que nous développons pour les créa...",
      "isArchive": false
    },
    {
      "id": "release-6.1",
      "title": "La 6.1 de PeerTube est sortie !",
      "shortDescription": "Nous avons le plaisir de vous annoncer la sortie de la version 6.1 de PeerTube 🙂 Outre l'intégration de l'import/export de compte et autres belles fo...",
      "isArchive": false
    },
    {
      "id": "release-6.2",
      "title": "La 6.2 de PeerTube est sortie !",
      "shortDescription": "Cette nouvelle version est sous le signe de la simplification de la vie. Simplification de la modération, de la génération des sous-titres, de la mise...",
      "isArchive": false
    },
    {
      "id": "release-6.3",
      "title": "Sortie de la v6.3 de PeerTube !",
      "shortDescription": "Dernière version mineure avant la v7, cette mouture n'en est pas moins pourvue de nouveautés intéressantes ! Faisons un tour :) Séparer les flux audio...",
      "isArchive": false
    },
    {
      "id": "roadmap-v6",
      "title": "Ce que 2023 réserve à PeerTube...",
      "shortDescription": "Nous (Framasoft, une petite association à but non lucratif !) sommes fier·es de vous présenter notre feuille de route pour les développements et les p...",
      "isArchive": false
    },
    {
      "id": "stress-test-2023",
      "title": "Tests de stress PeerTube : la résilience réside dans les pairs !",
      "shortDescription": "De nombreux administrateurs ou vidéastes se demandent combien de spectateurs simultanés une instance PeerTube peut gérer et dans quelle mesure la fonc...",
      "isArchive": false
    },
    {
      "id": "crowdfunding-1",
      "title": "Newsletter du crowdfunding de PeerTube n°1",
      "shortDescription": "Bonjour à toutes et à tous ! Tout d'abord, un grand merci pour avoir contribué à notre campagne. ❤️ Pendant le crowdfunding, nous avons continué d'ava...",
      "isArchive": true
    },
    {
      "id": "crowdfunding-2",
      "title": "Newsletter du crowdfunding de PeerTube n°2",
      "shortDescription": "Bonjour à toutes et à tous !Le développement des fonctionnalités du crowdfunding poursuit son chemin sans problème particulier.Pour rappel, dans la pr...",
      "isArchive": true
    },
    {
      "id": "crowdfunding-3",
      "title": "Newsletter du crowdfunding de PeerTube n°3",
      "shortDescription": "Bonjour à toutes et à tous !Nous sommes maintenant à un mois de la sortie de la version 1 de PeerTube ! Nous souhaitons donc vous partager quelques (b...",
      "isArchive": true
    },
    {
      "id": "crowdfunding-4",
      "title": "Newsletter du crowdfunding de PeerTube n°4",
      "shortDescription": "Bonjour à toutes et à tous !Nous voici mi-octobre ! Et comme promis, nous venons de sortir la première version stable de PeerTube.Elle contient tous l...",
      "isArchive": true
    },
    {
      "id": "ideas-jpt",
      "title": "Let's improve PeerTube - Help us define PeerTube's future roadmap",
      "shortDescription": "L'outil de feedback présenté ici étant exclusivement en Anglais, cette lettre d'information ne sera exceptionnellement pas traduite en Français. Bonjo...",
      "isArchive": true
    },
    {
      "id": "joinpeertube-2023",
      "title": "JoinPeertube fait peau neuve, la v5 PeerTube s'approche !",
      "shortDescription": "Bonjour, Tout d'abord, PeerTube v5 est en route, car nous venons de publier une version RC (Realease Candidate) qui sera testée dans les prochaines se...",
      "isArchive": true
    },
    {
      "id": "live-plugin-app",
      "title": "Nouveaux outils externes pour les Live PeerTube!",
      "shortDescription": "Un PeerTube pimpé avec des logiciels tiers, c'est possible ! Framasoft a financé et accompagné deux développements externes, pour apporter des fonctio...",
      "isArchive": true
    },
    {
      "id": "plugins-selection-1",
      "title": "Une sélection de plugins sur joinpeertube.org",
      "shortDescription": "Bonjour, En septembre 2019, à l'occasion de la sortie de la version 1.4 de PeerTube, nous vous annoncions la mise en place d'un système de plugins. Ce...",
      "isArchive": true
    },
    {
      "id": "release-1-3-0",
      "title": "PeerTube 1.3 est là !",
      "shortDescription": "Bonjour !Nous venons tout juste de sortir la version 1.3 de PeerTube qui apporte tout un tas de nouveautés.La plus importante de ces nouveautés est le...",
      "isArchive": true
    },
    {
      "id": "release-1-4-0",
      "title": "PeerTube 1.4 est là !",
      "shortDescription": "Bonjour à toutes et à tous,La dernière version de PeerTube est sortie ! Petit tour d’horizon de ce qu’elle apporte…Système de pluginsDepuis le lanceme...",
      "isArchive": true
    },
    {
      "id": "release-2-0-0",
      "title": "Sortie de la v2 de PeerTube, et refonte de JoinPeertube",
      "shortDescription": "Bonjour,Après un an de travail et d'améliorations, nous venons de publier la version 2 de PeerTube ! Tout est expliqué en détail dans l'article du Fra...",
      "isArchive": true
    },
    {
      "id": "release-2-1-0",
      "title": "PeerTube 2.1 est là !",
      "shortDescription": "Bonjour à toutes et à tous,Quelques mois après l'annonce de la version 2 de PeerTube, nous vous annonçons qu'une version 2.1 est sortie. Petit tour d'...",
      "isArchive": true
    },
    {
      "id": "release-2-2-0",
      "title": "PeerTube 2.2 est là !",
      "shortDescription": "Bonjour à toutes et à tous,Après l'annonce de notre feuille de route pour la V3 de PeerTube, nous ne boudons pas notre plaisir de vous informer que la...",
      "isArchive": true
    },
    {
      "id": "release-2-3-0",
      "title": "Et une 2.3 pour PeerTube !",
      "shortDescription": "Bonjour à toutes et à tous,Nous avons publié la version 2.2 de PeerTube début juin et c'est moins de deux mois plus tard qu'on publie cette version 2....",
      "isArchive": true
    },
    {
      "id": "release-2-4-0",
      "title": "La 2.4 de PeerTube est sortie !",
      "shortDescription": "Bonjour à toutes et à tous,Nous avons publié la version 2.3 de PeerTube mi-juillet et voici déjà la version 2.4. Cette dernière version intègre des fo...",
      "isArchive": true
    },
    {
      "id": "release-3.0",
      "title": "PeerTube v3 est sorti, avec du direct en pair-à-pair !",
      "shortDescription": "Bonjour, Ces six derniers mois ont été très chargés, mais nous avons rempli notre feuille de route et nous venons de lancer la version 3 de PeerTube !...",
      "isArchive": true
    },
    {
      "id": "release-3.0rc",
      "title": "La Release Candidate de la version 3 de PeerTube est publiée !",
      "shortDescription": "Bonjour à toutes et à tous, La v3 de PeerTube est presque terminée, et nous venons de publier la RC (release candidate) pour les admins qui souhaitent...",
      "isArchive": true
    },
    {
      "id": "release-3.1",
      "title": "La 3.1 de PeerTube est sortie !",
      "shortDescription": "Bonjour à toutes et à tous, Après avoir publié la v3 de PeerTube début janvier, il était temps de publier une nouvelle version majeure avec son lot d'...",
      "isArchive": true
    },
    {
      "id": "release-3.2",
      "title": "La 3.2 de PeerTube est sortie !",
      "shortDescription": "Bonjour à toutes et à tous, Il y a 2 mois de cela était publiée la version 3.1 ! Et depuis, nous avons apporté de nombreuses améliorations à votre out...",
      "isArchive": true
    },
    {
      "id": "release-3.3",
      "title": "La 3.3 de PeerTube est sortie !",
      "shortDescription": "Bonjour à toutes et à tous, Avec cette version 3.3, nous vous proposons de nouvelles fonctionnalités permettant de davantage personnaliser les instanc...",
      "isArchive": true
    },
    {
      "id": "release-3.4",
      "title": "Et une 3.4 pour PeerTube !",
      "shortDescription": "Bonjour à toutes et à tous, Chez Framasoft, on ne passe pas tout l'été à se dorer la pilule au soleil, on prend aussi du temps pour continuer le dével...",
      "isArchive": true
    },
    {
      "id": "release-candidate-4.0",
      "title": "Apprenez tout sur PeerTube v4 !",
      "shortDescription": "Bonjour, PeerTube v4 est en route, puisque nous venons de publier une version release candidate qui sera testée dans les prochaines semaines. À cette ...",
      "isArchive": true
    },
    {
      "id": "release-4.1",
      "title": "La 4.1 de PeerTube est sortie !",
      "shortDescription": "Bonjour à toutes et à tous, Nous vous invitons à découvrir les améliorations et fonctionnalités de cette dernière version de PeerTube. Petit tour des ...",
      "isArchive": true
    },
    {
      "id": "release-4.2",
      "title": "La 4.2 de PeerTube est sortie !",
      "shortDescription": "Bonjour à toutes et à tous, Ça y est, la version 4.2 de PeerTube est sortie ! Découvrez son lot de nouvelles fonctionnalités : la modification des vid...",
      "isArchive": true
    },
    {
      "id": "release-4.3",
      "title": "La 4.3 de PeerTube est sortie !",
      "shortDescription": "Bonjour à toutes et à tous, Ça y est, la version 4.3 de PeerTube est sortie ! Découvrez son lot de nouvelles fonctionnalités : import automatique des ...",
      "isArchive": true
    },
    {
      "id": "release-5.0",
      "title": "Apprenez tout sur PeerTube v5 !",
      "shortDescription": "🎉 La v5 de PeerTube v5 est désormais en ligne 🎉. À cette occasion, nous avons publié un billet de blog résumant une année de travail et d'améliorati...",
      "isArchive": true
    },
    {
      "id": "release-sepiasearch",
      "title": "Voici Sepia Search !",
      "shortDescription": "Bonjour à toutes et à tous, Nous venons de publier Sepia Search, notre moteur de recherche pour vous faire découvrir des vidéos et des chaînes sur Pee...",
      "isArchive": true
    },
    {
      "id": "release-since-1.0-0",
      "title": "PeerTube : rétrospective et nouvelles fonctionnalités à venir !",
      "shortDescription": "Depuis la version 1.0 sortie en novembre dernier, nous avons continué d'améliorer PeerTube jour après jour. Ces avancées de PeerTube, bien au delà des...",
      "isArchive": true
    },
    {
      "id": "roadmap-v3-part-1",
      "title": "[V3 Roadmap] Recherche globale ✅, en avant vers les outils de modération !",
      "shortDescription": "Voici une nouvelle étape de franchie dans la feuille de route de PeerTube qui mène vers la v3 ! Le mois de juin a en effet été consacré à la mise en p...",
      "isArchive": true
    },
    {
      "id": "roadmap-v3-part-2",
      "title": "[V3 Roadmap] Modération ✅, améliorons les plugins et playlists !",
      "shortDescription": "Début août, nous sommes entré·es dans une nouvelle étape du développement de la v3 de PeerTube.Outils de modération : en route pour la 2.4Début août, ...",
      "isArchive": true
    },
    {
      "id": "roadmap-v3",
      "title": "Feuille de route de la v3 de PeerTube",
      "shortDescription": "Hier, nous avons publié notre nouvelle feuille de route pour la v3 de PeerTube qui détaille les fonctionnalités clés telles que :recherche globaleouti...",
      "isArchive": true
    },
    {
      "id": "roadmap-v4",
      "title": "Nos projets pour PeerTube v4",
      "shortDescription": "Dans l'article blog de la sortie de PeerTube v3, nous avons annoncé que nous n'aurions pas recours au *crowdfunding* pour financer le développement de...",
      "isArchive": true
    }
  ]
}
